{
	"attrsList": [
		{
			"attrId": 107,
			"attrName": "二级手机",
			"attrValueList": ["华为", "苹果", "小米"]
		},
		{
			"attrId": 108,
			"attrName": "运行内存",
			"attrValueList": ["8G", "4G"]
		},
		{
			"attrId": 109,
			"attrName": "手机一级",
			"attrValueList": ["安卓", "苹果"]
		},
		{
			"attrId": 110,
			"attrName": "功效",
			"attrValueList": ["保湿", "防晒", "滋润", "防水"]
		},
		{
			"attrId": 111,
			"attrName": "香水彩妆",
			"attrValueList": ["口红"]
		},
		{
			"attrId": 112,
			"attrName": "面部护肤",
			"attrValueList": ["润唇膏"]
		},
		{
			"attrId": 113,
			"attrName": "电视类型",
			"attrValueList": ["4k超清", "人工智能", "曲面", "超薄"]
		},
		{
			"attrId": 114,
			"attrName": "屏幕尺寸",
			"attrValueList": ["60-70", "70-75", "75以上"]
		},
		{
			"attrId": 115,
			"attrName": "分辨率",
			"attrValueList": ["4k超清", "12k超清", "8k超清"]
		},
		{
			"attrId": 116,
			"attrName": "观看距离",
			"attrValueList": ["3.5m", "3m"]
		}
	],
	"goodsList": [
		{
			"attrs": null,
			"category1Id": null,
			"category1Name": null,
			"category2Id": null,
			"category2Name": null,
			"category3Id": null,
			"category3Name": null,
			"createTime": null,
			"defaultImg": "http://image1.suning.cn/uimg/b2c/newcatentries/0070134290-000000000149003877_1_400x400.jpg",
			"hotScore": 0,
			"id": 18,
			"price": 9177,
			"title": "TCL 75Q10 75英寸 QLED原色量子点电视 安桥音响 AI声控智慧屏 超薄",
			"tmId": null,
			"tmName": null
		},
		{
			"attrs": null,
			"category1Id": null,
			"category1Name": null,
			"category2Id": null,
			"category2Name": null,
			"category3Id": null,
			"category3Name": null,
			"createTime": null,
			"defaultImg": "http://image1.suning.cn/uimg/b2c/newcatentries/0070134290-000000000149003877_1_400x400.jpg",
			"hotScore": 0,
			"id": 19,
			"price": 9189,
			"title": "TCL 75Q10 75英寸 QLED原色量子点电视 安桥音响 AI声控智慧屏 超薄",
			"tmId": null,
			"tmName": null
		},
		{
			"attrs": null,
			"category1Id": null,
			"category1Name": null,
			"category2Id": null,
			"category2Name": null,
			"category3Id": null,
			"category3Name": null,
			"createTime": null,
			"defaultImg": "http://",
			"hotScore": 0,
			"id": 20,
			"price": 9177,
			"title": "TCL 75Q10 75英寸 QLED原色量子点电视 安桥音响 AI声控智慧屏 超薄",
			"tmId": null,
			"tmName": null
		},
		{
			"attrs": null,
			"category1Id": null,
			"category1Name": null,
			"category2Id": null,
			"category2Name": null,
			"category3Id": null,
			"category3Name": null,
			"createTime": null,
			"defaultImg": "http://image1.suning.cn/uimg/b2c/newcatentries/0070134290-000000000149003877_1_400x400.jpg",
			"hotScore": 0,
			"id": 21,
			"price": 9190,
			"title": "TCL 75Q10 75英寸 QLED原色量子点电视 安桥音响 AI声控智慧屏 超薄",
			"tmId": null,
			"tmName": null
		},
		{
			"attrs": null,
			"category1Id": null,
			"category1Name": null,
			"category2Id": null,
			"category2Name": null,
			"category3Id": null,
			"category3Name": null,
			"createTime": null,
			"defaultImg": "http://image1.suning.cn/uimg/b2c/newcatentries/0070134290-000000000149003877_1_400x400.jpg",
			"hotScore": 0,
			"id": 22,
			"price": 9155,
			"title": "TCL 75Q10 75英寸 QLED原色量子点电视 安桥音响 AI声控智慧屏 超薄",
			"tmId": null,
			"tmName": null
		},
		{
			"attrs": null,
			"category1Id": null,
			"category1Name": null,
			"category2Id": null,
			"category2Name": null,
			"category3Id": null,
			"category3Name": null,
			"createTime": null,
			"defaultImg": "http://image1.suning.cn/uimg/b2c/newcatentries/0070134290-000000000149003877_1_400x400.jpg",
			"hotScore": 0,
			"id": 23,
			"price": 9145,
			"title": "TCL 75Q10 75英寸 QLED原色量子点电视 安桥音响 AI声控智慧屏 超薄",
			"tmId": null,
			"tmName": null
		},
		{
			"attrs": null,
			"category1Id": null,
			"category1Name": null,
			"category2Id": null,
			"category2Name": null,
			"category3Id": null,
			"category3Name": null,
			"createTime": null,
			"defaultImg": "http://image1.suning.cn/uimg/b2c/newcatentries/0070134290-000000000149003877_1_400x400.jpg",
			"hotScore": 0,
			"id": 24,
			"price": 9123,
			"title": "TCL 75Q10 75英寸 QLED原色量子点电视 安桥音响 AI声控智慧屏 超薄",
			"tmId": null,
			"tmName": null
		},
		{
			"attrs": null,
			"category1Id": null,
			"category1Name": null,
			"category2Id": null,
			"category2Name": null,
			"category3Id": null,
			"category3Name": null,
			"createTime": null,
			"defaultImg": "http://image1.suning.cn/uimg/b2c/newcatentries/0070134290-000000000149003877_1_400x400.jpg",
			"hotScore": 0,
			"id": 25,
			"price": 9191,
			"title": "TCL 75Q10 75英寸 QLED原色量子点电视 安桥音响 AI声控智慧屏 超薄",
			"tmId": null,
			"tmName": null
		},
		{
			"attrs": null,
			"category1Id": null,
			"category1Name": null,
			"category2Id": null,
			"category2Name": null,
			"category3Id": null,
			"category3Name": null,
			"createTime": null,
			"defaultImg": "http://image1.suning.cn/uimg/b2c/newcatentries/0070134290-000000000149003877_1_400x400.jpg",
			"hotScore": 0,
			"id": 26,
			"price": 9190,
			"title": "TCL 75Q10 75英寸 QLED原色量子点电视 安桥音响 AI声控智慧屏 超薄",
			"tmId": null,
			"tmName": null
		},
		{
			"attrs": null,
			"category1Id": null,
			"category1Name": null,
			"category2Id": null,
			"category2Name": null,
			"category3Id": null,
			"category3Name": null,
			"createTime": null,
			"defaultImg": "http://image1.suning.cn/uimg/b2c/newcatentries/0070134290-000000000149003877_1_400x400.jpg",
			"hotScore": 0,
			"id": 27,
			"price": 9199,
			"title": "TCL 75Q10 75英寸 QLED原色量子点电视 安桥音响 AI声控智慧屏 超薄",
			"tmId": null,
			"tmName": null
		}
	],
	"pageNo": 1,
	"pageSize": 10,
	"total": 38,
	"totalPages": 4,
	"trademarkList": [
		{
			"tmId": 2,
			"tmName": "苹果"
		},
		{
			"tmId": 3,
			"tmName": "苹果"
		},
		{
			"tmId": 4,
			"tmName": "苹果"
		},
		{
			"tmId": 5,
			"tmName": "苹果"
		},
		{
			"tmId": 6,
			"tmName": "苹果"
		},
		{
			"tmId": 7,
			"tmName": "苹果"
		},
		{
			"tmId": 8,
			"tmName": "苹果"
		},
		{
			"tmId": 9,
			"tmName": "苹果"
		},
		{
			"tmId": 10,
			"tmName": "苹果"
		}
	]
}
